COMPANY,BUY ORDER NUMBER,QUANTITY,SELL ORDER NUMBER,PRICE,DATE,BUY CDS NUMBER,SELL CDS NUMBER
GVT,GVTM162,2000,GVTM162,1.00,11/17/15,004286317841026,000001317829992
GVT,GVTM162,500,GVTM162,1.00,11/17/15,004286317841026,000001317829992
