COMPANY,BUY ORDER NUMBER,QUANTITY,SELL ORDER NUMBER,PRICE,DATE,BUY CDS NUMBER,SELL CDS NUMBER
Microsoft,MicM1002,400,MicM1000,1.20,07/11/15,0000001133KPMG619,0000001131AIG104
Microsoft,MicM1002,100,MicM1001,1.20,07/11/15,0000001133KPMG619,0000001132AIG002
