COMPANY,BUY ORDER NUMBER,QUANTITY,SELL ORDER NUMBER,PRICE,DATE,BUY CDS NUMBER,SELL CDS NUMBER
Microsoft,MicM1000,300,MicM1001,1.20,11/19/15,000023317884341,000016317800221
Microsoft,MicM1000,200,MicM1002,1.20,11/19/15,000023317884341,000001317829992
GVT,GVTM1000,250,GVTM1001,1.00,11/19/15,000027317847227,000040317823493
Microsoft,MicM1001,100,MicM1001,1.20,11/19/15,000020317803122,000019317842792
Microsoft,MicM1001,1000,MicM1001,1.20,11/19/15,000015317808111,000016317800221
