COMPANY,BUY ORDER NUMBER,QUANTITY,SELL ORDER NUMBER,PRICE,DATE,BUY CDS NUMBER,SELL CDS NUMBER
ZWFIN0000001,ZWFM1001,450,ZWFM1002,1.05,10/27/16,IMS0000001,00000000021134768
ZWFIN0000001,ZWFM1001,500,ZWFM1002,1.05,10/27/16,00000010272147546,00000010282153100
ZWFIN0000001,ZWFM1001,300,ZWFM1000,1.05,10/27/16,IMS0000001,00000010091138893
ZWFIN0000001,ZWFM1000,2500,ZWFM1001,1.05,10/27/16,00000010172140580,00000010172140580
ZWFIN0000001,ZWFM1001,200,ZWFM1002,1.05,10/27/16,00000010272147546,00000010272147546
ZWFIN0000001,ZWFM1003,500,ZWFM1002,1.05,10/27/16,00000010302153164,00000010282153100
ZWFIN0000001,ZWFM1003,300,ZWFM1005,1.10,10/27/16,00000010302153164,00000010282153100
ZWFIN0000001,ZWFM1003,150,ZWFM1005,1.10,10/27/16,00000010302153164,00000010282153100
ZWFIN0000001,ZWFM1003,50,ZWFM1005,1.05,10/27/16,00000010302153164,00000010282153100
ZWFIN0000001,ZWFM1004,250,ZWFM1005,1.05,10/27/16,00000010302153164,00000010282153100
